<svg width="90" height="119" viewBox="0 0 90 119" fill="none" xmlns="http://www.w3.org/2000/svg">
<path d="M59.5 0H55.7749V3.72511H59.5V0Z" fill="#231F20"/>
<path d="M55.7767 0H52.0767V3.72511H55.7767V0Z" fill="#231F20"/>
<path d="M52.0747 0H48.3496V3.72511H52.0747V0Z" fill="#231F20"/>
<path d="M48.3496 0H44.6245V3.72511H48.3496V0Z" fill="#231F20"/>
<path d="M44.6245 0H40.8994V3.72511H44.6245V0Z" fill="#231F20"/>
<path d="M40.9012 0H37.2012V3.72511H40.9012V0Z" fill="#231F20"/>
<path d="M37.2007 0H33.4756V3.72511H37.2007V0Z" fill="#231F20"/>
<path d="M33.4756 0H29.7505V3.72511H33.4756V0Z" fill="#231F20"/>
<path d="M63.2251 3.7251H59.5V7.42511H63.2251V3.7251Z" fill="#231F20"/>
<path d="M59.5 3.7251H55.7749V7.42511H59.5V3.7251Z" fill="#9BC0D4"/>
<path d="M55.7767 3.7251H52.0767V7.42511H55.7767V3.7251Z" fill="#9BC0D4"/>
<path d="M52.0747 3.7251H48.3496V7.42511H52.0747V3.7251Z" fill="#9BC0D4"/>
<path d="M48.3496 3.7251H44.6245V7.42511H48.3496V3.7251Z" fill="#9BC0D4"/>
<path d="M44.6245 3.7251H40.8994V7.42511H44.6245V3.7251Z" fill="#9BC0D4"/>
<path d="M40.9012 3.7251H37.2012V7.42511H40.9012V3.7251Z" fill="#9BC0D4"/>
<path d="M37.2007 3.7251H33.4756V7.42511H37.2007V3.7251Z" fill="#D9EFFF"/>
<path d="M33.4756 3.7251H29.7505V7.42511H33.4756V3.7251Z" fill="#D9EFFF"/>
<path d="M29.7495 3.7251H26.0244V7.42511H29.7495V3.7251Z" fill="#231F20"/>
<path d="M66.9502 7.42517H63.2251V11.1503H66.9502V7.42517Z" fill="#231F20"/>
<path d="M63.2251 7.42517H59.5V11.1503H63.2251V7.42517Z" fill="#9BC0D4"/>
<path d="M59.5 7.42517H55.7749V11.1503H59.5V7.42517Z" fill="#9BC0D4"/>
<path d="M55.7767 7.42517H52.0767V11.1503H55.7767V7.42517Z" fill="#9BC0D4"/>
<path d="M52.0747 7.42517H48.3496V11.1503H52.0747V7.42517Z" fill="#9BC0D4"/>
<path d="M48.3496 7.42517H44.6245V11.1503H48.3496V7.42517Z" fill="#9BC0D4"/>
<path d="M44.6245 7.42517H40.8994V11.1503H44.6245V7.42517Z" fill="#9BC0D4"/>
<path d="M40.9012 7.42517H37.2012V11.1503H40.9012V7.42517Z" fill="#9BC0D4"/>
<path d="M37.2007 7.42517H33.4756V11.1503H37.2007V7.42517Z" fill="#9BC0D4"/>
<path d="M33.4756 7.42517H29.7505V11.1503H33.4756V7.42517Z" fill="#9BC0D4"/>
<path d="M29.7495 7.42517H26.0244V11.1503H29.7495V7.42517Z" fill="#9BC0D4"/>
<path d="M26.0257 7.42517H22.3257V11.1503H26.0257V7.42517Z" fill="#231F20"/>
<path d="M70.6502 11.1501H66.9502V14.8753H70.6502V11.1501Z" fill="#231F20"/>
<path d="M66.9502 11.1501H63.2251V14.8753H66.9502V11.1501Z" fill="#9BC0D4"/>
<path d="M63.2251 11.1501H59.5V14.8753H63.2251V11.1501Z" fill="#9BC0D4"/>
<path d="M59.5 11.1501H55.7749V14.8753H59.5V11.1501Z" fill="#9BC0D4"/>
<path d="M55.7767 11.1501H52.0767V14.8753H55.7767V11.1501Z" fill="#231F20"/>
<path d="M52.0747 11.1501H48.3496V14.8753H52.0747V11.1501Z" fill="#231F20"/>
<path d="M48.3496 11.1501H44.6245V14.8753H48.3496V11.1501Z" fill="#231F20"/>
<path d="M44.6245 11.1501H40.8994V14.8753H44.6245V11.1501Z" fill="#231F20"/>
<path d="M40.9012 11.1501H37.2012V14.8753H40.9012V11.1501Z" fill="#231F20"/>
<path d="M37.2007 11.1501H33.4756V14.8753H37.2007V11.1501Z" fill="#231F20"/>
<path d="M33.4756 11.1501H29.7505V14.8753H33.4756V11.1501Z" fill="#9BC0D4"/>
<path d="M29.7495 11.1501H26.0244V14.8753H29.7495V11.1501Z" fill="#9BC0D4"/>
<path d="M26.0257 11.1501H22.3257V14.8753H26.0257V11.1501Z" fill="#9BC0D4"/>
<path d="M22.3257 11.1501H18.6006V14.8753H22.3257V11.1501Z" fill="#231F20"/>
<path d="M74.3755 14.8754H70.6504V18.6005H74.3755V14.8754Z" fill="#231F20"/>
<path d="M70.6502 14.8754H66.9502V18.6005H70.6502V14.8754Z" fill="#5C93B6"/>
<path d="M66.9502 14.8754H63.2251V18.6005H66.9502V14.8754Z" fill="#9BC0D4"/>
<path d="M63.2251 14.8754H59.5V18.6005H63.2251V14.8754Z" fill="#9BC0D4"/>
<path d="M59.5 14.8754H55.7749V18.6005H59.5V14.8754Z" fill="#231F20"/>
<path d="M33.4756 14.8754H29.7505V18.6005H33.4756V14.8754Z" fill="#231F20"/>
<path d="M29.7495 14.8754H26.0244V18.6005H29.7495V14.8754Z" fill="#9BC0D4"/>
<path d="M26.0257 14.8754H22.3257V18.6005H26.0257V14.8754Z" fill="#9BC0D4"/>
<path d="M22.3257 14.8754H18.6006V18.6005H22.3257V14.8754Z" fill="#5C93B6"/>
<path d="M18.6006 14.8754H14.8755V18.6005H18.6006V14.8754Z" fill="#231F20"/>
<path d="M74.3755 18.6005H70.6504V22.3005H74.3755V18.6005Z" fill="#231F20"/>
<path d="M70.6502 18.6005H66.9502V22.3005H70.6502V18.6005Z" fill="#5C93B6"/>
<path d="M66.9502 18.6005H63.2251V22.3005H66.9502V18.6005Z" fill="#5C93B6"/>
<path d="M63.2251 18.6005H59.5V22.3005H63.2251V18.6005Z" fill="#231F20"/>
<path d="M29.7495 18.6005H26.0244V22.3005H29.7495V18.6005Z" fill="#231F20"/>
<path d="M26.0257 18.6005H22.3257V22.3005H26.0257V18.6005Z" fill="#5C93B6"/>
<path d="M22.3257 18.6005H18.6006V22.3005H22.3257V18.6005Z" fill="#5C93B6"/>
<path d="M18.6006 18.6005H14.8755V22.3005H18.6006V18.6005Z" fill="#231F20"/>
<path d="M74.3755 22.3004H70.6504V26.0255H74.3755V22.3004Z" fill="#231F20"/>
<path d="M70.6502 22.3004H66.9502V26.0255H70.6502V22.3004Z" fill="#456475"/>
<path d="M66.9502 22.3004H63.2251V26.0255H66.9502V22.3004Z" fill="#5C93B6"/>
<path d="M63.2251 22.3004H59.5V26.0255H63.2251V22.3004Z" fill="#231F20"/>
<path d="M52.0747 22.3004H48.3496V26.0255H52.0747V22.3004Z" fill="#231F20"/>
<path d="M48.3496 22.3004H44.6245V26.0255H48.3496V22.3004Z" fill="#231F20"/>
<path d="M44.6245 22.3004H40.8994V26.0255H44.6245V22.3004Z" fill="#231F20"/>
<path d="M40.9012 22.3004H37.2012V26.0255H40.9012V22.3004Z" fill="#231F20"/>
<path d="M29.7495 22.3004H26.0244V26.0255H29.7495V22.3004Z" fill="#231F20"/>
<path d="M26.0257 22.3004H22.3257V26.0255H26.0257V22.3004Z" fill="#5C93B6"/>
<path d="M22.3257 22.3004H18.6006V26.0255H22.3257V22.3004Z" fill="#456475"/>
<path d="M18.6006 22.3004H14.8755V26.0255H18.6006V22.3004Z" fill="#231F20"/>
<path d="M74.3755 26.0256H70.6504V29.7507H74.3755V26.0256Z" fill="#231F20"/>
<path d="M70.6502 26.0256H66.9502V29.7507H70.6502V26.0256Z" fill="#456475"/>
<path d="M66.9502 26.0256H63.2251V29.7507H66.9502V26.0256Z" fill="#456475"/>
<path d="M63.2251 26.0256H59.5V29.7507H63.2251V26.0256Z" fill="#293F47"/>
<path d="M59.5 26.0256H55.7749V29.7507H59.5V26.0256Z" fill="#231F20"/>
<path d="M55.7767 26.0256H52.0767V29.7507H55.7767V26.0256Z" fill="#231F20"/>
<path d="M52.0747 26.0256H48.3496V29.7507H52.0747V26.0256Z" fill="#D9EFFF"/>
<path d="M48.3496 26.0256H44.6245V29.7507H48.3496V26.0256Z" fill="#D9EFFF"/>
<path d="M44.6245 26.0256H40.8994V29.7507H44.6245V26.0256Z" fill="#D9EFFF"/>
<path d="M40.9012 26.0256H37.2012V29.7507H40.9012V26.0256Z" fill="#D9EFFF"/>
<path d="M37.2007 26.0256H33.4756V29.7507H37.2007V26.0256Z" fill="#231F20"/>
<path d="M33.4756 26.0256H29.7505V29.7507H33.4756V26.0256Z" fill="#231F20"/>
<path d="M29.7495 26.0256H26.0244V29.7507H29.7495V26.0256Z" fill="#293F47"/>
<path d="M26.0257 26.0256H22.3257V29.7507H26.0257V26.0256Z" fill="#456475"/>
<path d="M22.3257 26.0256H18.6006V29.7507H22.3257V26.0256Z" fill="#456475"/>
<path d="M18.6006 26.0256H14.8755V29.7507H18.6006V26.0256Z" fill="#231F20"/>
<path d="M74.3755 29.7506H70.6504V33.4757H74.3755V29.7506Z" fill="#231F20"/>
<path d="M70.6502 29.7506H66.9502V33.4757H70.6502V29.7506Z" fill="#345656"/>
<path d="M66.9502 29.7506H63.2251V33.4757H66.9502V29.7506Z" fill="#345656"/>
<path d="M63.2251 29.7506H59.5V33.4757H63.2251V29.7506Z" fill="#D9EFFF"/>
<path d="M59.5 29.7506H55.7749V33.4757H59.5V29.7506Z" fill="#D9EFFF"/>
<path d="M55.7767 29.7506H52.0767V33.4757H55.7767V29.7506Z" fill="#D9EFFF"/>
<path d="M52.0747 29.7506H48.3496V33.4757H52.0747V29.7506Z" fill="#9FC8D1"/>
<path d="M48.3496 29.7506H44.6245V33.4757H48.3496V29.7506Z" fill="#CEA31B"/>
<path d="M44.6245 29.7506H40.8994V33.4757H44.6245V29.7506Z" fill="#CEA31B"/>
<path d="M40.9012 29.7506H37.2012V33.4757H40.9012V29.7506Z" fill="#9FC8D1"/>
<path d="M37.2007 29.7506H33.4756V33.4757H37.2007V29.7506Z" fill="#9FC8D1"/>
<path d="M33.4756 29.7506H29.7505V33.4757H33.4756V29.7506Z" fill="#D9EFFF"/>
<path d="M29.7495 29.7506H26.0244V33.4757H29.7495V29.7506Z" fill="#D9EFFF"/>
<path d="M26.0257 29.7506H22.3257V33.4757H26.0257V29.7506Z" fill="#345656"/>
<path d="M22.3257 29.7506H18.6006V33.4757H22.3257V29.7506Z" fill="#345656"/>
<path d="M18.6006 29.7506H14.8755V33.4757H18.6006V29.7506Z" fill="#231F20"/>
<path d="M78.1006 33.4758H74.3755V37.1758H78.1006V33.4758Z" fill="#231F20"/>
<path d="M74.3755 33.4758H70.6504V37.1758H74.3755V33.4758Z" fill="#345656"/>
<path d="M70.6502 33.4758H66.9502V37.1758H70.6502V33.4758Z" fill="#D9EFFF"/>
<path d="M66.9502 33.4758H63.2251V37.1758H66.9502V33.4758Z" fill="#D9EFFF"/>
<path d="M63.2251 33.4758H59.5V37.1758H63.2251V33.4758Z" fill="#9FC8D1"/>
<path d="M59.5 33.4758H55.7749V37.1758H59.5V33.4758Z" fill="#9FC8D1"/>
<path d="M55.7767 33.4758H52.0767V37.1758H55.7767V33.4758Z" fill="#CEA31B"/>
<path d="M52.0747 33.4758H48.3496V37.1758H52.0747V33.4758Z" fill="#CEA31B"/>
<path d="M48.3496 33.4758H44.6245V37.1758H48.3496V33.4758Z" fill="#E2CF1B"/>
<path d="M44.6245 33.4758H40.8994V37.1758H44.6245V33.4758Z" fill="#E2CF1B"/>
<path d="M40.9012 33.4758H37.2012V37.1758H40.9012V33.4758Z" fill="#CEA31B"/>
<path d="M37.2007 33.4758H33.4756V37.1758H37.2007V33.4758Z" fill="#CEA31B"/>
<path d="M33.4756 33.4758H29.7505V37.1758H33.4756V33.4758Z" fill="#9FC8D1"/>
<path d="M29.7495 33.4758H26.0244V37.1758H29.7495V33.4758Z" fill="#9FC8D1"/>
<path d="M26.0257 33.4758H22.3257V37.1758H26.0257V33.4758Z" fill="#D9EFFF"/>
<path d="M22.3257 33.4758H18.6006V37.1758H22.3257V33.4758Z" fill="#D9EFFF"/>
<path d="M18.6006 33.4758H14.8755V37.1758H18.6006V33.4758Z" fill="#345656"/>
<path d="M14.8755 33.4758H11.1504V37.1758H14.8755V33.4758Z" fill="#231F20"/>
<path d="M81.8257 37.1744H78.1006V40.8995H81.8257V37.1744Z" fill="#231F20"/>
<path d="M78.1006 37.1744H74.3755V40.8995H78.1006V37.1744Z" fill="#D9EFFF"/>
<path d="M74.3755 37.1744H70.6504V40.8995H74.3755V37.1744Z" fill="#D9EFFF"/>
<path d="M70.6502 37.1744H66.9502V40.8995H70.6502V37.1744Z" fill="#9FC8D1"/>
<path d="M66.9502 37.1744H63.2251V40.8995H66.9502V37.1744Z" fill="#9FC8D1"/>
<path d="M63.2251 37.1744H59.5V40.8995H63.2251V37.1744Z" fill="#CEA31B"/>
<path d="M59.5 37.1744H55.7749V40.8995H59.5V37.1744Z" fill="#CEA31B"/>
<path d="M55.7767 37.1744H52.0767V40.8995H55.7767V37.1744Z" fill="#E2CF1B"/>
<path d="M52.0747 37.1744H48.3496V40.8995H52.0747V37.1744Z" fill="#E2CF1B"/>
<path d="M48.3496 37.1744H44.6245V40.8995H48.3496V37.1744Z" fill="#E2CF1B"/>
<path d="M44.6245 37.1744H40.8994V40.8995H44.6245V37.1744Z" fill="#E2CF1B"/>
<path d="M40.9012 37.1744H37.2012V40.8995H40.9012V37.1744Z" fill="#FFE843"/>
<path d="M37.2007 37.1744H33.4756V40.8995H37.2007V37.1744Z" fill="#FFE843"/>
<path d="M33.4756 37.1744H29.7505V40.8995H33.4756V37.1744Z" fill="#CEA31B"/>
<path d="M29.7495 37.1744H26.0244V40.8995H29.7495V37.1744Z" fill="#CEA31B"/>
<path d="M26.0257 37.1744H22.3257V40.8995H26.0257V37.1744Z" fill="#9FC8D1"/>
<path d="M22.3257 37.1744H18.6006V40.8995H22.3257V37.1744Z" fill="#9FC8D1"/>
<path d="M18.6006 37.1744H14.8755V40.8995H18.6006V37.1744Z" fill="#D9EFFF"/>
<path d="M14.8755 37.1744H11.1504V40.8995H14.8755V37.1744Z" fill="#D9EFFF"/>
<path d="M11.1502 37.1744H7.4502V40.8995H11.1502V37.1744Z" fill="#231F20"/>
<path d="M85.5257 40.9009H81.8257V44.626H85.5257V40.9009Z" fill="#231F20"/>
<path d="M81.8257 40.9009H78.1006V44.626H81.8257V40.9009Z" fill="#D9EFFF"/>
<path d="M78.1006 40.9009H74.3755V44.626H78.1006V40.9009Z" fill="#9FC8D1"/>
<path d="M74.3755 40.9009H70.6504V44.626H74.3755V40.9009Z" fill="#9FC8D1"/>
<path d="M70.6502 40.9009H66.9502V44.626H70.6502V40.9009Z" fill="#CEA31B"/>
<path d="M66.9502 40.9009H63.2251V44.626H66.9502V40.9009Z" fill="#CEA31B"/>
<path d="M63.2251 40.9009H59.5V44.626H63.2251V40.9009Z" fill="#E2CF1B"/>
<path d="M59.5 40.9009H55.7749V44.626H59.5V40.9009Z" fill="#E2CF1B"/>
<path d="M55.7767 40.9009H52.0767V44.626H55.7767V40.9009Z" fill="#E2CF1B"/>
<path d="M52.0747 40.9009H48.3496V44.626H52.0747V40.9009Z" fill="#E2CF1B"/>
<path d="M48.3496 40.9009H44.6245V44.626H48.3496V40.9009Z" fill="#E2CF1B"/>
<path d="M44.6245 40.9009H40.8994V44.626H44.6245V40.9009Z" fill="#E2CF1B"/>
<path d="M40.9012 40.9009H37.2012V44.626H40.9012V40.9009Z" fill="#E2CF1B"/>
<path d="M37.2007 40.9009H33.4756V44.626H37.2007V40.9009Z" fill="#E2CF1B"/>
<path d="M33.4756 40.9009H29.7505V44.626H33.4756V40.9009Z" fill="#FFE843"/>
<path d="M29.7495 40.9009H26.0244V44.626H29.7495V40.9009Z" fill="#FFE843"/>
<path d="M26.0257 40.9009H22.3257V44.626H26.0257V40.9009Z" fill="#CEA31B"/>
<path d="M22.3257 40.9009H18.6006V44.626H22.3257V40.9009Z" fill="#CEA31B"/>
<path d="M18.6006 40.9009H14.8755V44.626H18.6006V40.9009Z" fill="#9FC8D1"/>
<path d="M14.8755 40.9009H11.1504V44.626H14.8755V40.9009Z" fill="#9FC8D1"/>
<path d="M11.1502 40.9009H7.4502V44.626H11.1502V40.9009Z" fill="#D9EFFF"/>
<path d="M7.45021 40.9009H3.7251V44.626H7.45021V40.9009Z" fill="#231F20"/>
<path d="M89.2505 44.6261H85.5254V48.3512H89.2505V44.6261Z" fill="#231F20"/>
<path d="M85.5257 44.6261H81.8257V48.3512H85.5257V44.6261Z" fill="#9FC8D1"/>
<path d="M81.8257 44.6261H78.1006V48.3512H81.8257V44.6261Z" fill="#9FC8D1"/>
<path d="M78.1006 44.6261H74.3755V48.3512H78.1006V44.6261Z" fill="#9FC8D1"/>
<path d="M74.3755 44.6261H70.6504V48.3512H74.3755V44.6261Z" fill="#CEA31B"/>
<path d="M70.6502 44.6261H66.9502V48.3512H70.6502V44.6261Z" fill="#E2CF1B"/>
<path d="M66.9502 44.6261H63.2251V48.3512H66.9502V44.6261Z" fill="#E2CF1B"/>
<path d="M63.2251 44.6261H59.5V48.3512H63.2251V44.6261Z" fill="#E2CF1B"/>
<path d="M59.5 44.6261H55.7749V48.3512H59.5V44.6261Z" fill="#E2CF1B"/>
<path d="M55.7767 44.6261H52.0767V48.3512H55.7767V44.6261Z" fill="#E2CF1B"/>
<path d="M52.0747 44.6261H48.3496V48.3512H52.0747V44.6261Z" fill="#E2CF1B"/>
<path d="M48.3496 44.6261H44.6245V48.3512H48.3496V44.6261Z" fill="#E2CF1B"/>
<path d="M44.6245 44.6261H40.8994V48.3512H44.6245V44.6261Z" fill="#E2CF1B"/>
<path d="M40.9012 44.6261H37.2012V48.3512H40.9012V44.6261Z" fill="#E2CF1B"/>
<path d="M37.2007 44.6261H33.4756V48.3512H37.2007V44.6261Z" fill="#E2CF1B"/>
<path d="M33.4756 44.6261H29.7505V48.3512H33.4756V44.6261Z" fill="#E2CF1B"/>
<path d="M29.7495 44.6261H26.0244V48.3512H29.7495V44.6261Z" fill="#E2CF1B"/>
<path d="M26.0257 44.6261H22.3257V48.3512H26.0257V44.6261Z" fill="#FFE843"/>
<path d="M22.3257 44.6261H18.6006V48.3512H22.3257V44.6261Z" fill="#FFE843"/>
<path d="M18.6006 44.6261H14.8755V48.3512H18.6006V44.6261Z" fill="#CEA31B"/>
<path d="M14.8755 44.6261H11.1504V48.3512H14.8755V44.6261Z" fill="#9FC8D1"/>
<path d="M11.1502 44.6261H7.4502V48.3512H11.1502V44.6261Z" fill="#9FC8D1"/>
<path d="M7.45021 44.6261H3.7251V48.3512H7.45021V44.6261Z" fill="#9FC8D1"/>
<path d="M3.72511 44.6261H0V48.3512H3.72511V44.6261Z" fill="#231F20"/>
<path d="M89.2505 48.3512H85.5254V52.0763H89.2505V48.3512Z" fill="#231F20"/>
<path d="M85.5257 48.3512H81.8257V52.0763H85.5257V48.3512Z" fill="#9FC8D1"/>
<path d="M81.8257 48.3512H78.1006V52.0763H81.8257V48.3512Z" fill="#6D949B"/>
<path d="M78.1006 48.3512H74.3755V52.0763H78.1006V48.3512Z" fill="#CEA31B"/>
<path d="M74.3755 48.3512H70.6504V52.0763H74.3755V48.3512Z" fill="#E2CF1B"/>
<path d="M70.6502 48.3512H66.9502V52.0763H70.6502V48.3512Z" fill="#E2CF1B"/>
<path d="M66.9502 48.3512H63.2251V52.0763H66.9502V48.3512Z" fill="#E2CF1B"/>
<path d="M63.2251 48.3512H59.5V52.0763H63.2251V48.3512Z" fill="#E2CF1B"/>
<path d="M59.5 48.3512H55.7749V52.0763H59.5V48.3512Z" fill="#E2CF1B"/>
<path d="M55.7767 48.3512H52.0767V52.0763H55.7767V48.3512Z" fill="#E2CF1B"/>
<path d="M52.0747 48.3512H48.3496V52.0763H52.0747V48.3512Z" fill="#E2CF1B"/>
<path d="M48.3496 48.3512H44.6245V52.0763H48.3496V48.3512Z" fill="#E2CF1B"/>
<path d="M44.6245 48.3512H40.8994V52.0763H44.6245V48.3512Z" fill="#E2CF1B"/>
<path d="M40.9012 48.3512H37.2012V52.0763H40.9012V48.3512Z" fill="#E2CF1B"/>
<path d="M37.2007 48.3512H33.4756V52.0763H37.2007V48.3512Z" fill="#E2CF1B"/>
<path d="M33.4756 48.3512H29.7505V52.0763H33.4756V48.3512Z" fill="#E2CF1B"/>
<path d="M29.7495 48.3512H26.0244V52.0763H29.7495V48.3512Z" fill="#E2CF1B"/>
<path d="M26.0257 48.3512H22.3257V52.0763H26.0257V48.3512Z" fill="#E2CF1B"/>
<path d="M22.3257 48.3512H18.6006V52.0763H22.3257V48.3512Z" fill="#E2CF1B"/>
<path d="M18.6006 48.3512H14.8755V52.0763H18.6006V48.3512Z" fill="#FFE843"/>
<path d="M14.8755 48.3512H11.1504V52.0763H14.8755V48.3512Z" fill="#CEA31B"/>
<path d="M11.1502 48.3512H7.4502V52.0763H11.1502V48.3512Z" fill="#6D949B"/>
<path d="M7.45021 48.3512H3.7251V52.0763H7.45021V48.3512Z" fill="#9FC8D1"/>
<path d="M3.72511 48.3512H0V52.0763H3.72511V48.3512Z" fill="#231F20"/>
<path d="M89.2505 52.0763H85.5254V55.7763H89.2505V52.0763Z" fill="#231F20"/>
<path d="M85.5257 52.0763H81.8257V55.7763H85.5257V52.0763Z" fill="#6D949B"/>
<path d="M81.8257 52.0763H78.1006V55.7763H81.8257V52.0763Z" fill="#CEA31B"/>
<path d="M78.1006 52.0763H74.3755V55.7763H78.1006V52.0763Z" fill="#E2CF1B"/>
<path d="M74.3755 52.0763H70.6504V55.7763H74.3755V52.0763Z" fill="#E2CF1B"/>
<path d="M70.6502 52.0763H66.9502V55.7763H70.6502V52.0763Z" fill="#E2CF1B"/>
<path d="M66.9502 52.0763H63.2251V55.7763H66.9502V52.0763Z" fill="#E2CF1B"/>
<path d="M63.2251 52.0763H59.5V55.7763H63.2251V52.0763Z" fill="#E2CF1B"/>
<path d="M59.5 52.0763H55.7749V55.7763H59.5V52.0763Z" fill="#E2CF1B"/>
<path d="M55.7767 52.0763H52.0767V55.7763H55.7767V52.0763Z" fill="#E2CF1B"/>
<path d="M52.0747 52.0763H48.3496V55.7763H52.0747V52.0763Z" fill="#E2CF1B"/>
<path d="M48.3496 52.0763H44.6245V55.7763H48.3496V52.0763Z" fill="#373838"/>
<path d="M44.6245 52.0763H40.8994V55.7763H44.6245V52.0763Z" fill="#373838"/>
<path d="M40.9012 52.0763H37.2012V55.7763H40.9012V52.0763Z" fill="#E2CF1B"/>
<path d="M37.2007 52.0763H33.4756V55.7763H37.2007V52.0763Z" fill="#E2CF1B"/>
<path d="M33.4756 52.0763H29.7505V55.7763H33.4756V52.0763Z" fill="#E2CF1B"/>
<path d="M29.7495 52.0763H26.0244V55.7763H29.7495V52.0763Z" fill="#E2CF1B"/>
<path d="M26.0257 52.0763H22.3257V55.7763H26.0257V52.0763Z" fill="#E2CF1B"/>
<path d="M22.3257 52.0763H18.6006V55.7763H22.3257V52.0763Z" fill="#E2CF1B"/>
<path d="M18.6006 52.0763H14.8755V55.7763H18.6006V52.0763Z" fill="#E2CF1B"/>
<path d="M14.8755 52.0763H11.1504V55.7763H14.8755V52.0763Z" fill="#FFE843"/>
<path d="M11.1502 52.0763H7.4502V55.7763H11.1502V52.0763Z" fill="#CEA31B"/>
<path d="M7.45021 52.0763H3.7251V55.7763H7.45021V52.0763Z" fill="#6D949B"/>
<path d="M3.72511 52.0763H0V55.7763H3.72511V52.0763Z" fill="#231F20"/>
<path d="M89.2505 55.7749H85.5254V59.5H89.2505V55.7749Z" fill="#231F20"/>
<path d="M85.5257 55.7749H81.8257V59.5H85.5257V55.7749Z" fill="#6D949B"/>
<path d="M81.8257 55.7749H78.1006V59.5H81.8257V55.7749Z" fill="#E2CF1B"/>
<path d="M78.1006 55.7749H74.3755V59.5H78.1006V55.7749Z" fill="#E2CF1B"/>
<path d="M74.3755 55.7749H70.6504V59.5H74.3755V55.7749Z" fill="#E2CF1B"/>
<path d="M70.6502 55.7749H66.9502V59.5H70.6502V55.7749Z" fill="#E2CF1B"/>
<path d="M66.9502 55.7749H63.2251V59.5H66.9502V55.7749Z" fill="#E2CF1B"/>
<path d="M63.2251 55.7749H59.5V59.5H63.2251V55.7749Z" fill="#E2CF1B"/>
<path d="M59.5 55.7749H55.7749V59.5H59.5V55.7749Z" fill="#E2CF1B"/>
<path d="M55.7767 55.7749H52.0767V59.5H55.7767V55.7749Z" fill="#E2CF1B"/>
<path d="M52.0747 55.7749H48.3496V59.5H52.0747V55.7749Z" fill="#373838"/>
<path d="M48.3496 55.7749H44.6245V59.5H48.3496V55.7749Z" fill="#2D2D2D"/>
<path d="M44.6245 55.7749H40.8994V59.5H44.6245V55.7749Z" fill="#2D2D2D"/>
<path d="M40.9012 55.7749H37.2012V59.5H40.9012V55.7749Z" fill="#373838"/>
<path d="M37.2007 55.7749H33.4756V59.5H37.2007V55.7749Z" fill="#E2CF1B"/>
<path d="M33.4756 55.7749H29.7505V59.5H33.4756V55.7749Z" fill="#E2CF1B"/>
<path d="M29.7495 55.7749H26.0244V59.5H29.7495V55.7749Z" fill="#E2CF1B"/>
<path d="M26.0257 55.7749H22.3257V59.5H26.0257V55.7749Z" fill="#E2CF1B"/>
<path d="M22.3257 55.7749H18.6006V59.5H22.3257V55.7749Z" fill="#E2CF1B"/>
<path d="M18.6006 55.7749H14.8755V59.5H18.6006V55.7749Z" fill="#E2CF1B"/>
<path d="M14.8755 55.7749H11.1504V59.5H14.8755V55.7749Z" fill="#FFE843"/>
<path d="M11.1502 55.7749H7.4502V59.5H11.1502V55.7749Z" fill="#CEA31B"/>
<path d="M7.45021 55.7749H3.7251V59.5H7.45021V55.7749Z" fill="#6D949B"/>
<path d="M3.72511 55.7749H0V59.5H3.72511V55.7749Z" fill="#231F20"/>
<path d="M89.2505 59.5H85.5254V63.2251H89.2505V59.5Z" fill="#231F20"/>
<path d="M85.5257 59.5H81.8257V63.2251H85.5257V59.5Z" fill="#6D949B"/>
<path d="M81.8257 59.5H78.1006V63.2251H81.8257V59.5Z" fill="#E2CF1B"/>
<path d="M78.1006 59.5H74.3755V63.2251H78.1006V59.5Z" fill="#E2CF1B"/>
<path d="M74.3755 59.5H70.6504V63.2251H74.3755V59.5Z" fill="#E2CF1B"/>
<path d="M70.6502 59.5H66.9502V63.2251H70.6502V59.5Z" fill="#E2CF1B"/>
<path d="M66.9502 59.5H63.2251V63.2251H66.9502V59.5Z" fill="#E2CF1B"/>
<path d="M63.2251 59.5H59.5V63.2251H63.2251V59.5Z" fill="#E2CF1B"/>
<path d="M59.5 59.5H55.7749V63.2251H59.5V59.5Z" fill="#E2CF1B"/>
<path d="M55.7767 59.5H52.0767V63.2251H55.7767V59.5Z" fill="#373838"/>
<path d="M52.0747 59.5H48.3496V63.2251H52.0747V59.5Z" fill="#2D2D2D"/>
<path d="M48.3496 59.5H44.6245V63.2251H48.3496V59.5Z" fill="#1C1C1C"/>
<path d="M44.6245 59.5H40.8994V63.2251H44.6245V59.5Z" fill="#1C1C1C"/>
<path d="M40.9012 59.5H37.2012V63.2251H40.9012V59.5Z" fill="#2D2D2D"/>
<path d="M37.2007 59.5H33.4756V63.2251H37.2007V59.5Z" fill="#373838"/>
<path d="M33.4756 59.5H29.7505V63.2251H33.4756V59.5Z" fill="#E2CF1B"/>
<path d="M29.7495 59.5H26.0244V63.2251H29.7495V59.5Z" fill="#E2CF1B"/>
<path d="M26.0257 59.5H22.3257V63.2251H26.0257V59.5Z" fill="#E2CF1B"/>
<path d="M22.3257 59.5H18.6006V63.2251H22.3257V59.5Z" fill="#E2CF1B"/>
<path d="M18.6006 59.5H14.8755V63.2251H18.6006V59.5Z" fill="#E2CF1B"/>
<path d="M14.8755 59.5H11.1504V63.2251H14.8755V59.5Z" fill="#E2CF1B"/>
<path d="M11.1502 59.5H7.4502V63.2251H11.1502V59.5Z" fill="#CEA31B"/>
<path d="M7.45021 59.5H3.7251V63.2251H7.45021V59.5Z" fill="#6D949B"/>
<path d="M3.72511 59.5H0V63.2251H3.72511V59.5Z" fill="#231F20"/>
<path d="M89.2505 63.2266H85.5254V66.9517H89.2505V63.2266Z" fill="#231F20"/>
<path d="M85.5257 63.2266H81.8257V66.9517H85.5257V63.2266Z" fill="#6D949B"/>
<path d="M81.8257 63.2266H78.1006V66.9517H81.8257V63.2266Z" fill="#E2CF1B"/>
<path d="M78.1006 63.2266H74.3755V66.9517H78.1006V63.2266Z" fill="#E2CF1B"/>
<path d="M74.3755 63.2266H70.6504V66.9517H74.3755V63.2266Z" fill="#E2CF1B"/>
<path d="M70.6502 63.2266H66.9502V66.9517H70.6502V63.2266Z" fill="#E2CF1B"/>
<path d="M66.9502 63.2266H63.2251V66.9517H66.9502V63.2266Z" fill="#E2CF1B"/>
<path d="M63.2251 63.2266H59.5V66.9517H63.2251V63.2266Z" fill="#E2CF1B"/>
<path d="M59.5 63.2266H55.7749V66.9517H59.5V63.2266Z" fill="#E2CF1B"/>
<path d="M55.7767 63.2266H52.0767V66.9517H55.7767V63.2266Z" fill="#373838"/>
<path d="M52.0747 63.2266H48.3496V66.9517H52.0747V63.2266Z" fill="#2D2D2D"/>
<path d="M48.3496 63.2266H44.6245V66.9517H48.3496V63.2266Z" fill="#1C1C1C"/>
<path d="M44.6245 63.2266H40.8994V66.9517H44.6245V63.2266Z" fill="#1C1C1C"/>
<path d="M40.9012 63.2266H37.2012V66.9517H40.9012V63.2266Z" fill="#2D2D2D"/>
<path d="M37.2007 63.2266H33.4756V66.9517H37.2007V63.2266Z" fill="#373838"/>
<path d="M33.4756 63.2266H29.7505V66.9517H33.4756V63.2266Z" fill="#E2CF1B"/>
<path d="M29.7495 63.2266H26.0244V66.9517H29.7495V63.2266Z" fill="#E2CF1B"/>
<path d="M26.0257 63.2266H22.3257V66.9517H26.0257V63.2266Z" fill="#E2CF1B"/>
<path d="M22.3257 63.2266H18.6006V66.9517H22.3257V63.2266Z" fill="#E2CF1B"/>
<path d="M18.6006 63.2266H14.8755V66.9517H18.6006V63.2266Z" fill="#E2CF1B"/>
<path d="M14.8755 63.2251H11.1504V66.9502H14.8755V63.2251Z" fill="#FFE843"/>
<path d="M11.1502 63.2251H7.4502V66.9502H11.1502V63.2251Z" fill="#CEA31B"/>
<path d="M7.45021 63.2251H3.7251V66.9502H7.45021V63.2251Z" fill="#6D949B"/>
<path d="M3.72511 63.2251H0V66.9502H3.72511V63.2251Z" fill="#231F20"/>
<path d="M89.2505 66.9517H85.5254V70.6517H89.2505V66.9517Z" fill="#231F20"/>
<path d="M85.5257 66.9517H81.8257V70.6517H85.5257V66.9517Z" fill="#6D949B"/>
<path d="M81.8257 66.9517H78.1006V70.6517H81.8257V66.9517Z" fill="#D17919"/>
<path d="M78.1006 66.9517H74.3755V70.6517H78.1006V66.9517Z" fill="#E2CF1B"/>
<path d="M74.3755 66.9517H70.6504V70.6517H74.3755V66.9517Z" fill="#E2CF1B"/>
<path d="M70.6502 66.9517H66.9502V70.6517H70.6502V66.9517Z" fill="#E2CF1B"/>
<path d="M66.9502 66.9517H63.2251V70.6517H66.9502V66.9517Z" fill="#E2CF1B"/>
<path d="M63.2251 66.9517H59.5V70.6517H63.2251V66.9517Z" fill="#E2CF1B"/>
<path d="M59.5 66.9517H55.7749V70.6517H59.5V66.9517Z" fill="#E2CF1B"/>
<path d="M55.7767 66.9517H52.0767V70.6517H55.7767V66.9517Z" fill="#E2CF1B"/>
<path d="M52.0747 66.9517H48.3496V70.6517H52.0747V66.9517Z" fill="#373838"/>
<path d="M48.3496 66.9517H44.6245V70.6517H48.3496V66.9517Z" fill="#1C1C1C"/>
<path d="M44.6245 66.9517H40.8994V70.6517H44.6245V66.9517Z" fill="#1C1C1C"/>
<path d="M40.9012 66.9517H37.2012V70.6517H40.9012V66.9517Z" fill="#373838"/>
<path d="M37.2007 66.9517H33.4756V70.6517H37.2007V66.9517Z" fill="#E2CF1B"/>
<path d="M33.4756 66.9517H29.7505V70.6517H33.4756V66.9517Z" fill="#E2CF1B"/>
<path d="M29.7495 66.9517H26.0244V70.6517H29.7495V66.9517Z" fill="#E2CF1B"/>
<path d="M26.0257 66.9517H22.3257V70.6517H26.0257V66.9517Z" fill="#E2CF1B"/>
<path d="M22.3257 66.9517H18.6006V70.6517H22.3257V66.9517Z" fill="#E2CF1B"/>
<path d="M18.6006 66.9517H14.8755V70.6517H18.6006V66.9517Z" fill="#E2CF1B"/>
<path d="M14.8755 66.9517H11.1504V70.6517H14.8755V66.9517Z" fill="#E2CF1B"/>
<path d="M11.1502 66.9517H7.4502V70.6517H11.1502V66.9517Z" fill="#CEA31B"/>
<path d="M7.45021 66.9517H3.7251V70.6517H7.45021V66.9517Z" fill="#6D949B"/>
<path d="M3.72511 66.9517H0V70.6517H3.72511V66.9517Z" fill="#231F20"/>
<path d="M89.2505 70.6501H85.5254V74.3753H89.2505V70.6501Z" fill="#231F20"/>
<path d="M85.5257 70.6501H81.8257V74.3753H85.5257V70.6501Z" fill="#6D949B"/>
<path d="M81.8257 70.6501H78.1006V74.3753H81.8257V70.6501Z" fill="#D17919"/>
<path d="M78.1006 70.6501H74.3755V74.3753H78.1006V70.6501Z" fill="#E09F1E"/>
<path d="M74.3755 70.6501H70.6504V74.3753H74.3755V70.6501Z" fill="#E2CF1B"/>
<path d="M70.6502 70.6501H66.9502V74.3753H70.6502V70.6501Z" fill="#E2CF1B"/>
<path d="M66.9502 70.6501H63.2251V74.3753H66.9502V70.6501Z" fill="#E2CF1B"/>
<path d="M63.2251 70.6501H59.5V74.3753H63.2251V70.6501Z" fill="#E2CF1B"/>
<path d="M59.5 70.6501H55.7749V74.3753H59.5V70.6501Z" fill="#E2CF1B"/>
<path d="M55.7767 70.6501H52.0767V74.3753H55.7767V70.6501Z" fill="#E2CF1B"/>
<path d="M52.0747 70.6501H48.3496V74.3753H52.0747V70.6501Z" fill="#E2CF1B"/>
<path d="M48.3496 70.6501H44.6245V74.3753H48.3496V70.6501Z" fill="#1C1C1C"/>
<path d="M44.6245 70.6501H40.8994V74.3753H44.6245V70.6501Z" fill="#2D2D2D"/>
<path d="M40.9012 70.6501H37.2012V74.3753H40.9012V70.6501Z" fill="#E2CF1B"/>
<path d="M37.2007 70.6501H33.4756V74.3753H37.2007V70.6501Z" fill="#E2CF1B"/>
<path d="M33.4756 70.6501H29.7505V74.3753H33.4756V70.6501Z" fill="#E2CF1B"/>
<path d="M29.7495 70.6501H26.0244V74.3753H29.7495V70.6501Z" fill="#E2CF1B"/>
<path d="M26.0257 70.6501H22.3257V74.3753H26.0257V70.6501Z" fill="#E2CF1B"/>
<path d="M22.3257 70.6501H18.6006V74.3753H22.3257V70.6501Z" fill="#E2CF1B"/>
<path d="M18.6006 70.6501H14.8755V74.3753H18.6006V70.6501Z" fill="#E2CF1B"/>
<path d="M14.8755 70.6501H11.1504V74.3753H14.8755V70.6501Z" fill="#E2CF1B"/>
<path d="M11.1502 70.6501H7.4502V74.3753H11.1502V70.6501Z" fill="#D17919"/>
<path d="M7.45021 70.6501H3.7251V74.3753H7.45021V70.6501Z" fill="#6D949B"/>
<path d="M3.72511 70.6501H0V74.3753H3.72511V70.6501Z" fill="#231F20"/>
<path d="M89.2505 74.3754H85.5254V78.1004H89.2505V74.3754Z" fill="#231F20"/>
<path d="M85.5257 74.3754H81.8257V78.1004H85.5257V74.3754Z" fill="#6D949B"/>
<path d="M81.8257 74.3754H78.1006V78.1004H81.8257V74.3754Z" fill="#D17919"/>
<path d="M78.1006 74.3754H74.3755V78.1004H78.1006V74.3754Z" fill="#E09F1E"/>
<path d="M74.3755 74.3754H70.6504V78.1004H74.3755V74.3754Z" fill="#E2CF1B"/>
<path d="M70.6502 74.3754H66.9502V78.1004H70.6502V74.3754Z" fill="#E2CF1B"/>
<path d="M66.9502 74.3754H63.2251V78.1004H66.9502V74.3754Z" fill="#E2CF1B"/>
<path d="M63.2251 74.3754H59.5V78.1004H63.2251V74.3754Z" fill="#E2CF1B"/>
<path d="M59.5 74.3754H55.7749V78.1004H59.5V74.3754Z" fill="#E2CF1B"/>
<path d="M55.7767 74.3754H52.0767V78.1004H55.7767V74.3754Z" fill="#E2CF1B"/>
<path d="M52.0747 74.3754H48.3496V78.1004H52.0747V74.3754Z" fill="#E2CF1B"/>
<path d="M48.3496 74.3754H44.6245V78.1004H48.3496V74.3754Z" fill="#1C1C1C"/>
<path d="M44.6245 74.3754H40.8994V78.1004H44.6245V74.3754Z" fill="#2D2D2D"/>
<path d="M40.9012 74.3754H37.2012V78.1004H40.9012V74.3754Z" fill="#E2CF1B"/>
<path d="M37.2007 74.3754H33.4756V78.1004H37.2007V74.3754Z" fill="#E2CF1B"/>
<path d="M33.4756 74.3754H29.7505V78.1004H33.4756V74.3754Z" fill="#E2CF1B"/>
<path d="M29.7495 74.3754H26.0244V78.1004H29.7495V74.3754Z" fill="#E2CF1B"/>
<path d="M26.0257 74.3754H22.3257V78.1004H26.0257V74.3754Z" fill="#E2CF1B"/>
<path d="M22.3257 74.3754H18.6006V78.1004H22.3257V74.3754Z" fill="#E2CF1B"/>
<path d="M18.6006 74.3754H14.8755V78.1004H18.6006V74.3754Z" fill="#E2CF1B"/>
<path d="M14.8755 74.3754H11.1504V78.1004H14.8755V74.3754Z" fill="#E09F1E"/>
<path d="M11.1502 74.3754H7.4502V78.1004H11.1502V74.3754Z" fill="#D17919"/>
<path d="M7.45021 74.3754H3.7251V78.1004H7.45021V74.3754Z" fill="#6D949B"/>
<path d="M3.72511 74.3754H0V78.1004H3.72511V74.3754Z" fill="#231F20"/>
<path d="M89.2505 78.1005H85.5254V81.8256H89.2505V78.1005Z" fill="#231F20"/>
<path d="M85.5257 78.1005H81.8257V81.8256H85.5257V78.1005Z" fill="#6D949B"/>
<path d="M81.8257 78.1005H78.1006V81.8256H81.8257V78.1005Z" fill="#D17919"/>
<path d="M78.1006 78.1005H74.3755V81.8256H78.1006V78.1005Z" fill="#E09F1E"/>
<path d="M74.3755 78.1005H70.6504V81.8256H74.3755V78.1005Z" fill="#E2CF1B"/>
<path d="M70.6502 78.1005H66.9502V81.8256H70.6502V78.1005Z" fill="#E2CF1B"/>
<path d="M66.9502 78.1005H63.2251V81.8256H66.9502V78.1005Z" fill="#E2CF1B"/>
<path d="M63.2251 78.1005H59.5V81.8256H63.2251V78.1005Z" fill="#E2CF1B"/>
<path d="M59.5 78.1005H55.7749V81.8256H59.5V78.1005Z" fill="#E2CF1B"/>
<path d="M55.7767 78.1005H52.0767V81.8256H55.7767V78.1005Z" fill="#E2CF1B"/>
<path d="M52.0747 78.1005H48.3496V81.8256H52.0747V78.1005Z" fill="#373838"/>
<path d="M48.3496 78.1005H44.6245V81.8256H48.3496V78.1005Z" fill="#1C1C1C"/>
<path d="M44.6245 78.1005H40.8994V81.8256H44.6245V78.1005Z" fill="#2D2D2D"/>
<path d="M40.9012 78.1005H37.2012V81.8256H40.9012V78.1005Z" fill="#373838"/>
<path d="M37.2007 78.1005H33.4756V81.8256H37.2007V78.1005Z" fill="#E2CF1B"/>
<path d="M33.4756 78.1005H29.7505V81.8256H33.4756V78.1005Z" fill="#E2CF1B"/>
<path d="M29.7495 78.1005H26.0244V81.8256H29.7495V78.1005Z" fill="#E2CF1B"/>
<path d="M26.0257 78.1005H22.3257V81.8256H26.0257V78.1005Z" fill="#E2CF1B"/>
<path d="M22.3257 78.1005H18.6006V81.8256H22.3257V78.1005Z" fill="#E2CF1B"/>
<path d="M18.6006 78.1005H14.8755V81.8256H18.6006V78.1005Z" fill="#E2CF1B"/>
<path d="M14.8755 78.1005H11.1504V81.8256H14.8755V78.1005Z" fill="#E09F1E"/>
<path d="M11.1502 78.1005H7.4502V81.8256H11.1502V78.1005Z" fill="#D17919"/>
<path d="M7.45021 78.1005H3.7251V81.8256H7.45021V78.1005Z" fill="#6D949B"/>
<path d="M3.72511 78.1005H0V81.8256H3.72511V78.1005Z" fill="#231F20"/>
<path d="M89.2505 81.8256H85.5254V85.5256H89.2505V81.8256Z" fill="#231F20"/>
<path d="M85.5257 81.8256H81.8257V85.5256H85.5257V81.8256Z" fill="#6D949B"/>
<path d="M81.8257 81.8256H78.1006V85.5256H81.8257V81.8256Z" fill="#D17919"/>
<path d="M78.1006 81.8256H74.3755V85.5256H78.1006V81.8256Z" fill="#E09F1E"/>
<path d="M74.3755 81.8256H70.6504V85.5256H74.3755V81.8256Z" fill="#E2CF1B"/>
<path d="M70.6502 81.8256H66.9502V85.5256H70.6502V81.8256Z" fill="#E2CF1B"/>
<path d="M66.9502 81.8256H63.2251V85.5256H66.9502V81.8256Z" fill="#E2CF1B"/>
<path d="M63.2251 81.8256H59.5V85.5256H63.2251V81.8256Z" fill="#E2CF1B"/>
<path d="M59.5 81.8256H55.7749V85.5256H59.5V81.8256Z" fill="#E2CF1B"/>
<path d="M55.7767 81.8256H52.0767V85.5256H55.7767V81.8256Z" fill="#E2CF1B"/>
<path d="M52.0747 81.8256H48.3496V85.5256H52.0747V81.8256Z" fill="#373838"/>
<path d="M48.3496 81.8256H44.6245V85.5256H48.3496V81.8256Z" fill="#1C1C1C"/>
<path d="M44.6245 81.8256H40.8994V85.5256H44.6245V81.8256Z" fill="#1C1C1C"/>
<path d="M40.9012 81.8256H37.2012V85.5256H40.9012V81.8256Z" fill="#373838"/>
<path d="M37.2007 81.8256H33.4756V85.5256H37.2007V81.8256Z" fill="#E2CF1B"/>
<path d="M33.4756 81.8256H29.7505V85.5256H33.4756V81.8256Z" fill="#E2CF1B"/>
<path d="M29.7495 81.8256H26.0244V85.5256H29.7495V81.8256Z" fill="#E2CF1B"/>
<path d="M26.0257 81.8256H22.3257V85.5256H26.0257V81.8256Z" fill="#E2CF1B"/>
<path d="M22.3257 81.8256H18.6006V85.5256H22.3257V81.8256Z" fill="#E2CF1B"/>
<path d="M18.6006 81.8256H14.8755V85.5256H18.6006V81.8256Z" fill="#E2CF1B"/>
<path d="M14.8755 81.8256H11.1504V85.5256H14.8755V81.8256Z" fill="#E09F1E"/>
<path d="M11.1502 81.8256H7.4502V85.5256H11.1502V81.8256Z" fill="#D17919"/>
<path d="M7.45021 81.8256H3.7251V85.5256H7.45021V81.8256Z" fill="#6D949B"/>
<path d="M3.72511 81.8256H0V85.5256H3.72511V81.8256Z" fill="#231F20"/>
<path d="M89.2505 85.5256H85.5254V89.2508H89.2505V85.5256Z" fill="#231F20"/>
<path d="M85.5257 85.5256H81.8257V89.2508H85.5257V85.5256Z" fill="#6D949B"/>
<path d="M81.8257 85.5256H78.1006V89.2508H81.8257V85.5256Z" fill="#D17919"/>
<path d="M78.1006 85.5256H74.3755V89.2508H78.1006V85.5256Z" fill="#E09F1E"/>
<path d="M74.3755 85.5256H70.6504V89.2508H74.3755V85.5256Z" fill="#E09F1E"/>
<path d="M70.6502 85.5256H66.9502V89.2508H70.6502V85.5256Z" fill="#E2CF1B"/>
<path d="M66.9502 85.5256H63.2251V89.2508H66.9502V85.5256Z" fill="#E2CF1B"/>
<path d="M63.2251 85.5256H59.5V89.2508H63.2251V85.5256Z" fill="#E2CF1B"/>
<path d="M59.5 85.5256H55.7749V89.2508H59.5V85.5256Z" fill="#E2CF1B"/>
<path d="M55.7747 85.5256H52.0747V89.2508H55.7747V85.5256Z" fill="#E2CF1B"/>
<path d="M52.0747 85.5256H48.3496V89.2508H52.0747V85.5256Z" fill="#E2CF1B"/>
<path d="M48.3496 85.5256H44.6245V89.2508H48.3496V85.5256Z" fill="#373838"/>
<path d="M44.6245 85.5256H40.8994V89.2508H44.6245V85.5256Z" fill="#373838"/>
<path d="M40.9012 85.5256H37.2012V89.2508H40.9012V85.5256Z" fill="#E2CF1B"/>
<path d="M37.2007 85.5256H33.4756V89.2508H37.2007V85.5256Z" fill="#E2CF1B"/>
<path d="M33.4756 85.5256H29.7505V89.2508H33.4756V85.5256Z" fill="#E2CF1B"/>
<path d="M29.7495 85.5256H26.0244V89.2508H29.7495V85.5256Z" fill="#E2CF1B"/>
<path d="M26.0257 85.5256H22.3257V89.2508H26.0257V85.5256Z" fill="#E2CF1B"/>
<path d="M22.3257 85.5256H18.6006V89.2508H22.3257V85.5256Z" fill="#E2CF1B"/>
<path d="M18.6006 85.5256H14.8755V89.2508H18.6006V85.5256Z" fill="#E09F1E"/>
<path d="M14.8755 85.5256H11.1504V89.2508H14.8755V85.5256Z" fill="#E09F1E"/>
<path d="M11.1502 85.5256H7.4502V89.2508H11.1502V85.5256Z" fill="#D17919"/>
<path d="M7.45021 85.5256H3.7251V89.2508H7.45021V85.5256Z" fill="#6D949B"/>
<path d="M3.72511 85.5256H0V89.2508H3.72511V85.5256Z" fill="#231F20"/>
<path d="M89.2505 89.2506H85.5254V92.9757H89.2505V89.2506Z" fill="#231F20"/>
<path d="M85.5257 89.2506H81.8257V92.9757H85.5257V89.2506Z" fill="#6D949B"/>
<path d="M81.8257 89.2506H78.1006V92.9757H81.8257V89.2506Z" fill="#4B6E70"/>
<path d="M78.1006 89.2506H74.3755V92.9757H78.1006V89.2506Z" fill="#D17919"/>
<path d="M74.3755 89.2506H70.6504V92.9757H74.3755V89.2506Z" fill="#E09F1E"/>
<path d="M70.6502 89.2506H66.9502V92.9757H70.6502V89.2506Z" fill="#E09F1E"/>
<path d="M66.9502 89.2506H63.2251V92.9757H66.9502V89.2506Z" fill="#E09F1E"/>
<path d="M63.2251 89.2506H59.5V92.9757H63.2251V89.2506Z" fill="#E2CF1B"/>
<path d="M59.5 89.2506H55.7749V92.9757H59.5V89.2506Z" fill="#E2CF1B"/>
<path d="M55.7747 89.2506H52.0747V92.9757H55.7747V89.2506Z" fill="#E2CF1B"/>
<path d="M52.0747 89.2506H48.3496V92.9757H52.0747V89.2506Z" fill="#E2CF1B"/>
<path d="M48.3496 89.2506H44.6245V92.9757H48.3496V89.2506Z" fill="#E2CF1B"/>
<path d="M44.6245 89.2506H40.8994V92.9757H44.6245V89.2506Z" fill="#E2CF1B"/>
<path d="M40.9012 89.2506H37.2012V92.9757H40.9012V89.2506Z" fill="#E2CF1B"/>
<path d="M37.2007 89.2506H33.4756V92.9757H37.2007V89.2506Z" fill="#E2CF1B"/>
<path d="M33.4756 89.2506H29.7505V92.9757H33.4756V89.2506Z" fill="#E2CF1B"/>
<path d="M29.7495 89.2506H26.0244V92.9757H29.7495V89.2506Z" fill="#E2CF1B"/>
<path d="M26.0257 89.2506H22.3257V92.9757H26.0257V89.2506Z" fill="#E09F1E"/>
<path d="M22.3257 89.2506H18.6006V92.9757H22.3257V89.2506Z" fill="#E09F1E"/>
<path d="M18.6006 89.2506H14.8755V92.9757H18.6006V89.2506Z" fill="#E09F1E"/>
<path d="M14.8755 89.2506H11.1504V92.9757H14.8755V89.2506Z" fill="#D17919"/>
<path d="M11.1502 89.2506H7.4502V92.9757H11.1502V89.2506Z" fill="#4B6E70"/>
<path d="M7.45021 89.2506H3.7251V92.9757H7.45021V89.2506Z" fill="#6D949B"/>
<path d="M3.72511 89.2506H0V92.9757H3.72511V89.2506Z" fill="#231F20"/>
<path d="M85.5257 92.9758H81.8257V96.701H85.5257V92.9758Z" fill="#231F20"/>
<path d="M81.8257 92.9758H78.1006V96.701H81.8257V92.9758Z" fill="#6D949B"/>
<path d="M78.1006 92.9758H74.3755V96.701H78.1006V92.9758Z" fill="#4B6E70"/>
<path d="M74.3755 92.9758H70.6504V96.701H74.3755V92.9758Z" fill="#D17919"/>
<path d="M70.6502 92.9758H66.9502V96.701H70.6502V92.9758Z" fill="#D17919"/>
<path d="M66.9502 92.9758H63.2251V96.701H66.9502V92.9758Z" fill="#E09F1E"/>
<path d="M63.2251 92.9758H59.5V96.701H63.2251V92.9758Z" fill="#E09F1E"/>
<path d="M59.5 92.9758H55.7749V96.701H59.5V92.9758Z" fill="#E2CF1B"/>
<path d="M55.7747 92.9758H52.0747V96.701H55.7747V92.9758Z" fill="#E2CF1B"/>
<path d="M52.0747 92.9758H48.3496V96.701H52.0747V92.9758Z" fill="#E2CF1B"/>
<path d="M48.3496 92.9758H44.6245V96.701H48.3496V92.9758Z" fill="#E2CF1B"/>
<path d="M44.6245 92.9758H40.8994V96.701H44.6245V92.9758Z" fill="#E2CF1B"/>
<path d="M40.9012 92.9758H37.2012V96.701H40.9012V92.9758Z" fill="#E2CF1B"/>
<path d="M37.2007 92.9758H33.4756V96.701H37.2007V92.9758Z" fill="#E2CF1B"/>
<path d="M33.4756 92.9758H29.7505V96.701H33.4756V92.9758Z" fill="#E2CF1B"/>
<path d="M29.7495 92.9758H26.0244V96.701H29.7495V92.9758Z" fill="#E09F1E"/>
<path d="M26.0257 92.9758H22.3257V96.701H26.0257V92.9758Z" fill="#E09F1E"/>
<path d="M22.3257 92.9758H18.6006V96.701H22.3257V92.9758Z" fill="#D17919"/>
<path d="M18.6006 92.9758H14.8755V96.701H18.6006V92.9758Z" fill="#D17919"/>
<path d="M14.8755 92.9758H11.1504V96.701H14.8755V92.9758Z" fill="#4B6E70"/>
<path d="M11.1502 92.9758H7.4502V96.701H11.1502V92.9758Z" fill="#6D949B"/>
<path d="M7.45021 92.9758H3.7251V96.701H7.45021V92.9758Z" fill="#231F20"/>
<path d="M81.8257 96.7009H78.1006V100.401H81.8257V96.7009Z" fill="#231F20"/>
<path d="M78.1006 96.7009H74.3755V100.401H78.1006V96.7009Z" fill="#6D949B"/>
<path d="M74.3755 96.7009H70.6504V100.401H74.3755V96.7009Z" fill="#4B6E70"/>
<path d="M70.6502 96.7009H66.9502V100.401H70.6502V96.7009Z" fill="#4B6E70"/>
<path d="M66.9502 96.7009H63.2251V100.401H66.9502V96.7009Z" fill="#D17919"/>
<path d="M63.2251 96.7009H59.5V100.401H63.2251V96.7009Z" fill="#E09F1E"/>
<path d="M59.5 96.7009H55.7749V100.401H59.5V96.7009Z" fill="#E09F1E"/>
<path d="M55.7747 96.7009H52.0747V100.401H55.7747V96.7009Z" fill="#E09F1E"/>
<path d="M52.0747 96.7009H48.3496V100.401H52.0747V96.7009Z" fill="#E2CF1B"/>
<path d="M48.3496 96.7009H44.6245V100.401H48.3496V96.7009Z" fill="#E2CF1B"/>
<path d="M44.6245 96.7009H40.8994V100.401H44.6245V96.7009Z" fill="#E2CF1B"/>
<path d="M40.9012 96.7009H37.2012V100.401H40.9012V96.7009Z" fill="#E2CF1B"/>
<path d="M37.2007 96.7009H33.4756V100.401H37.2007V96.7009Z" fill="#E09F1E"/>
<path d="M33.4756 96.7009H29.7505V100.401H33.4756V96.7009Z" fill="#E09F1E"/>
<path d="M29.7495 96.7009H26.0244V100.401H29.7495V96.7009Z" fill="#E09F1E"/>
<path d="M26.0257 96.7009H22.3257V100.401H26.0257V96.7009Z" fill="#D17919"/>
<path d="M22.3257 96.7009H18.6006V100.401H22.3257V96.7009Z" fill="#4B6E70"/>
<path d="M18.6006 96.7009H14.8755V100.401H18.6006V96.7009Z" fill="#4B6E70"/>
<path d="M14.8755 96.7009H11.1504V100.401H14.8755V96.7009Z" fill="#6D949B"/>
<path d="M11.1502 96.7009H7.4502V100.401H11.1502V96.7009Z" fill="#231F20"/>
<path d="M78.1006 100.401H74.3755V104.126H78.1006V100.401Z" fill="#231F20"/>
<path d="M74.3755 100.401H70.6504V104.126H74.3755V100.401Z" fill="#231F20"/>
<path d="M70.6502 100.401H66.9502V104.126H70.6502V100.401Z" fill="#6D949B"/>
<path d="M66.9502 100.401H63.2251V104.126H66.9502V100.401Z" fill="#4B6E70"/>
<path d="M63.2251 100.401H59.5V104.126H63.2251V100.401Z" fill="#D17919"/>
<path d="M59.5 100.401H55.7749V104.126H59.5V100.401Z" fill="#D17919"/>
<path d="M55.7747 100.401H52.0747V104.126H55.7747V100.401Z" fill="#E09F1E"/>
<path d="M52.0747 100.401H48.3496V104.126H52.0747V100.401Z" fill="#E09F1E"/>
<path d="M48.3496 100.401H44.6245V104.126H48.3496V100.401Z" fill="#E09F1E"/>
<path d="M44.6245 100.401H40.8994V104.126H44.6245V100.401Z" fill="#E09F1E"/>
<path d="M40.9012 100.401H37.2012V104.126H40.9012V100.401Z" fill="#E09F1E"/>
<path d="M37.2007 100.401H33.4756V104.126H37.2007V100.401Z" fill="#E09F1E"/>
<path d="M33.4756 100.401H29.7505V104.126H33.4756V100.401Z" fill="#D17919"/>
<path d="M29.7495 100.401H26.0244V104.126H29.7495V100.401Z" fill="#D17919"/>
<path d="M26.0257 100.401H22.3257V104.126H26.0257V100.401Z" fill="#4B6E70"/>
<path d="M22.3257 100.401H18.6006V104.126H22.3257V100.401Z" fill="#6D949B"/>
<path d="M18.6006 100.401H14.8755V104.126H18.6006V100.401Z" fill="#231F20"/>
<path d="M14.8755 100.401H11.1504V104.126H14.8755V100.401Z" fill="#231F20"/>
<path d="M70.6502 104.126H66.9502V107.851H70.6502V104.126Z" fill="#231F20"/>
<path d="M66.9502 104.126H63.2251V107.851H66.9502V104.126Z" fill="#6D949B"/>
<path d="M63.2251 104.126H59.5V107.851H63.2251V104.126Z" fill="#4B6E70"/>
<path d="M59.5 104.126H55.7749V107.851H59.5V104.126Z" fill="#4B6E70"/>
<path d="M55.7747 104.126H52.0747V107.851H55.7747V104.126Z" fill="#D17919"/>
<path d="M52.0747 104.126H48.3496V107.851H52.0747V104.126Z" fill="#D17919"/>
<path d="M48.3496 104.126H44.6245V107.851H48.3496V104.126Z" fill="#E09F1E"/>
<path d="M44.6245 104.126H40.8994V107.851H44.6245V104.126Z" fill="#E09F1E"/>
<path d="M40.9012 104.126H37.2012V107.851H40.9012V104.126Z" fill="#D17919"/>
<path d="M37.2007 104.126H33.4756V107.851H37.2007V104.126Z" fill="#D17919"/>
<path d="M33.4756 104.126H29.7505V107.851H33.4756V104.126Z" fill="#4B6E70"/>
<path d="M29.7495 104.126H26.0244V107.851H29.7495V104.126Z" fill="#4B6E70"/>
<path d="M26.0257 104.126H22.3257V107.851H26.0257V104.126Z" fill="#6D949B"/>
<path d="M22.3257 104.126H18.6006V107.851H22.3257V104.126Z" fill="#231F20"/>
<path d="M66.9502 107.851H63.2251V111.576H66.9502V107.851Z" fill="#231F20"/>
<path d="M63.2251 107.851H59.5V111.576H63.2251V107.851Z" fill="#231F20"/>
<path d="M59.5 107.851H55.7749V111.576H59.5V107.851Z" fill="#6D949B"/>
<path d="M55.7747 107.851H52.0747V111.576H55.7747V107.851Z" fill="#4B6E70"/>
<path d="M52.0747 107.851H48.3496V111.576H52.0747V107.851Z" fill="#4B6E70"/>
<path d="M48.3496 107.851H44.6245V111.576H48.3496V107.851Z" fill="#D17919"/>
<path d="M44.6245 107.851H40.8994V111.576H44.6245V107.851Z" fill="#D17919"/>
<path d="M40.9012 107.851H37.2012V111.576H40.9012V107.851Z" fill="#4B6E70"/>
<path d="M37.2007 107.851H33.4756V111.576H37.2007V107.851Z" fill="#4B6E70"/>
<path d="M33.4756 107.851H29.7505V111.576H33.4756V107.851Z" fill="#6D949B"/>
<path d="M29.7495 107.851H26.0244V111.576H29.7495V107.851Z" fill="#231F20"/>
<path d="M26.0257 107.851H22.3257V111.576H26.0257V107.851Z" fill="#231F20"/>
<path d="M59.5 111.576H55.7749V115.276H59.5V111.576Z" fill="#231F20"/>
<path d="M55.7747 111.576H52.0747V115.276H55.7747V111.576Z" fill="#231F20"/>
<path d="M52.0747 111.576H48.3496V115.276H52.0747V111.576Z" fill="#6D949B"/>
<path d="M48.3496 111.576H44.6245V115.276H48.3496V111.576Z" fill="#4B6E70"/>
<path d="M44.6245 111.576H40.8994V115.276H44.6245V111.576Z" fill="#4B6E70"/>
<path d="M40.9012 111.576H37.2012V115.276H40.9012V111.576Z" fill="#6D949B"/>
<path d="M37.2007 111.576H33.4756V115.276H37.2007V111.576Z" fill="#231F20"/>
<path d="M33.4756 111.576H29.7505V115.276H33.4756V111.576Z" fill="#231F20"/>
<path d="M52.0747 115.275H48.3496V119H52.0747V115.275Z" fill="#231F20"/>
<path d="M48.3496 115.275H44.6245V119H48.3496V115.275Z" fill="#231F20"/>
<path d="M44.6245 115.275H40.8994V119H44.6245V115.275Z" fill="#231F20"/>
<path d="M40.9012 115.275H37.2012V119H40.9012V115.275Z" fill="#231F20"/>
</svg>
