<svg width="739" height="480" viewBox="0 0 739 480" fill="none" xmlns="http://www.w3.org/2000/svg">
<path d="M316.162 462.769C314.233 462.769 313.269 465.079 314.653 466.465L318.762 470.582C319.307 471.128 320.02 471.422 320.775 471.422L411.311 471.422C412.066 471.422 412.779 471.128 413.324 470.582L417.433 466.465C418.775 465.121 417.811 462.769 415.924 462.769L316.12 462.769L316.162 462.769Z" fill="#FBA123"/>
<path d="M421.771 17.231C423.7 17.231 424.665 14.9207 423.281 13.5346L419.171 9.41814C418.626 8.87208 417.913 8.57806 417.158 8.57806L326.622 8.57806C325.868 8.57806 325.155 8.87207 324.61 9.41813L320.5 13.5346C319.158 14.8787 320.123 17.2309 322.01 17.2309L421.771 17.231Z" fill="#FBA123"/>
<path d="M16.8318 459.492C14.817 459.492 13.1836 461.128 13.1836 463.147C13.1836 465.165 14.817 466.801 16.8318 466.801C18.8467 466.801 20.4801 465.165 20.4801 463.147C20.4801 461.128 18.8467 459.492 16.8318 459.492Z" fill="#FBB03B"/>
<path d="M16.8319 13.1989C14.817 13.1989 13.1836 14.835 13.1836 16.8532C13.1836 18.8715 14.817 20.5076 16.8319 20.5076C18.8468 20.5076 20.4802 18.8715 20.4802 16.8532C20.4802 14.835 18.8468 13.1989 16.8319 13.1989Z" fill="#FBB03B"/>
<path d="M721.648 459.492C719.633 459.492 718 461.128 718 463.147C718 465.165 719.633 466.801 721.648 466.801C723.663 466.801 725.297 465.165 725.297 463.147C725.297 461.128 723.663 459.492 721.648 459.492Z" fill="#FBB03B"/>
<path d="M9.49338 296.727C9.49338 294.71 11.1288 293.072 13.1417 293.072C15.1545 293.072 16.7899 294.71 16.7899 296.727C16.7899 298.743 15.1545 300.381 13.1417 300.381C11.1288 300.381 9.49338 298.743 9.49338 296.727Z" fill="#FBB03B"/>
<path d="M9.49338 183.273C9.49338 185.29 11.1288 186.928 13.1417 186.928C15.1545 186.928 16.7899 185.29 16.7899 183.273C16.7899 181.257 15.1545 179.619 13.1417 179.619C11.1288 179.619 9.49338 181.257 9.49338 183.273Z" fill="#FBB03B"/>
<path d="M9.49338 286.435C9.49338 284.419 11.1288 282.781 13.1417 282.781C15.1545 282.781 16.7899 284.419 16.7899 286.435C16.7899 288.452 15.1545 290.09 13.1417 290.09C11.1288 290.09 9.49338 288.452 9.49338 286.435Z" fill="#FBB03B"/>
<path d="M9.49338 193.564C9.49338 195.581 11.1288 197.219 13.1417 197.219C15.1545 197.219 16.7899 195.581 16.7899 193.564C16.7899 191.548 15.1545 189.91 13.1417 189.91C11.1288 189.91 9.49338 191.548 9.49338 193.564Z" fill="#FBB03B"/>
<path d="M9.49338 276.186C9.49338 274.17 11.1288 272.532 13.1417 272.532C15.1545 272.532 16.7899 274.17 16.7899 276.186C16.7899 278.203 15.1545 279.841 13.1417 279.841C11.1288 279.841 9.49338 278.203 9.49338 276.186Z" fill="#FBB03B"/>
<path d="M9.49338 203.813C9.49338 205.83 11.1288 207.468 13.1417 207.468C15.1545 207.468 16.7899 205.83 16.7899 203.813C16.7899 201.797 15.1545 200.159 13.1417 200.159C11.1288 200.159 9.49338 201.797 9.49338 203.813Z" fill="#FBB03B"/>
<path d="M9.49338 265.895C9.49338 263.879 11.1288 262.241 13.1417 262.241C15.1545 262.241 16.7899 263.879 16.7899 265.895C16.7899 267.912 15.1545 269.55 13.1417 269.55C11.1288 269.55 9.49338 267.912 9.49338 265.895Z" fill="#FBB03B"/>
<path d="M9.49338 214.104C9.49338 216.121 11.1288 217.759 13.1417 217.759C15.1545 217.759 16.7899 216.121 16.7899 214.104C16.7899 212.088 15.1545 210.45 13.1417 210.45C11.1288 210.45 9.49338 212.088 9.49338 214.104Z" fill="#FBB03B"/>
<path d="M9.49338 255.604C9.49338 253.588 11.1288 251.95 13.1417 251.95C15.1545 251.95 16.7899 253.588 16.7899 255.604C16.7899 257.621 15.1545 259.259 13.1417 259.259C11.1288 259.259 9.49338 257.621 9.49338 255.604Z" fill="#FBB03B"/>
<path d="M9.49338 224.395C9.49338 226.412 11.1288 228.05 13.1417 228.05C15.1545 228.05 16.7899 226.412 16.7899 224.395C16.7899 222.379 15.1545 220.741 13.1417 220.741C11.1288 220.741 9.49338 222.379 9.49338 224.395Z" fill="#FBB03B"/>
<path d="M9.49338 245.356C9.49338 243.339 11.1288 241.701 13.1417 241.701C15.1545 241.701 16.7899 243.339 16.7899 245.356C16.7899 247.372 15.1545 249.01 13.1417 249.01C11.1288 249.01 9.49338 247.372 9.49338 245.356Z" fill="#FBB03B"/>
<path d="M9.49338 234.644C9.49338 236.661 11.1288 238.299 13.1417 238.299C15.1545 238.299 16.7899 236.661 16.7899 234.644C16.7899 232.628 15.1545 230.99 13.1417 230.99C11.1288 230.99 9.49338 232.628 9.49338 234.644Z" fill="#FBB03B"/>
<g filter="url(#filter0_d_384_4)">
<path d="M311.216 4.04202L427.152 4.04203C429.418 4.04203 431.516 4.92395 433.11 6.51984L437.222 10.6355C438.607 12.0214 440.453 12.7773 442.425 12.7773L711.293 13.3233C713.265 13.3233 715.111 12.5674 716.496 11.1815L716.58 11.0975C718.174 9.50159 720.272 8.61966 722.538 8.61966C724.804 8.61966 726.902 9.50159 728.496 11.0975C730.091 12.6934 730.972 14.7932 730.972 17.061C730.972 19.3288 730.091 21.4286 728.496 23.0245L728.412 23.1085C727.028 24.4944 726.272 26.3842 726.272 28.3161L726.272 163.125C726.272 165.057 727.07 166.947 728.412 168.333L732.524 172.448C734.119 174.044 735 176.144 735 178.412L735 302.764C735 305.032 734.119 307.132 732.524 308.727L728.412 312.843C727.028 314.229 726.272 316.077 726.272 318.051L726.272 452.818C726.272 454.75 727.07 456.64 728.412 458.025L728.496 458.109C730.091 459.705 730.972 461.805 730.972 464.073C730.972 466.341 730.091 468.441 728.496 470.036C726.902 471.632 724.804 472.514 722.538 472.514C720.272 472.514 718.174 471.632 716.579 470.036L716.496 469.952C715.111 468.567 713.265 467.811 711.293 467.811L439.773 467.265C437.801 467.265 435.955 468.021 434.57 469.406L430.458 473.522C428.864 475.118 426.766 476 424.5 476L308.606 476C306.382 476 304.242 475.118 302.648 473.522L298.536 469.406C297.151 468.021 295.305 467.265 293.332 467.265L27.6654 467.265C25.7352 467.265 23.8471 468.063 22.4624 469.406L22.3785 469.49C19.1056 472.766 13.7767 472.766 10.5038 469.49C7.2309 466.215 7.2309 460.881 10.5038 457.605L10.5877 457.521C11.9724 456.136 12.7277 454.246 12.7277 452.314L12.7277 317.463C12.7277 315.489 11.9724 313.641 10.5877 312.255L6.4756 308.139C4.88112 306.544 3.99995 304.444 3.99995 302.176L3.99997 177.824C3.99997 175.556 4.88113 173.456 6.47561 171.86L10.5877 167.745C11.9724 166.359 12.7277 164.469 12.7277 162.537L12.7277 27.7281C12.7277 25.7962 11.9305 23.9064 10.5877 22.5205L10.5038 22.4365C7.23094 19.1608 7.23094 13.8272 10.5038 10.5095C13.7767 7.23373 19.1056 7.23373 22.3785 10.5095L22.4624 10.5935C23.8471 11.9794 25.7353 12.7353 27.6654 12.7353L295.984 12.7353C297.956 12.7353 299.803 11.9794 301.187 10.5935L305.299 6.47781C306.852 4.92394 309.034 4.00002 311.258 4.00002L311.216 4.04202ZM711.251 14.3732L442.383 13.8272C440.117 13.8272 438.019 12.9453 436.425 11.3494L432.313 7.23374C430.928 5.84784 429.082 5.09192 427.11 5.09192L311.216 5.09191C309.286 5.09191 307.397 5.88982 306.013 7.23373L301.901 11.3494C300.306 12.9453 298.208 13.8272 295.942 13.8272L27.6236 13.8272C25.3997 13.8272 23.2597 12.9453 21.6653 11.3494L21.5813 11.2654C18.728 8.36764 14.0285 8.36764 11.1752 11.2654C8.32194 14.1212 8.32194 18.8248 11.1752 21.6806L11.2591 21.7646C12.8116 23.3184 13.7347 25.5022 13.7347 27.7281L13.7347 162.537C13.7347 164.805 12.8535 166.905 11.2591 168.501L7.147 172.616C5.76229 174.002 5.00705 175.892 5.00705 177.824L5.00703 302.176C5.00703 304.108 5.80428 305.998 7.14699 307.384L11.259 311.499C12.8535 313.095 13.7347 315.195 13.7347 317.463L13.7347 452.272C13.7347 454.54 12.8535 456.639 11.259 458.235L11.1752 458.319C8.3219 461.175 8.3219 465.879 11.1752 468.735C14.0284 471.59 18.728 471.59 21.5812 468.735L21.6652 468.651C23.2178 467.097 25.3997 466.173 27.6235 466.173L293.291 466.173C295.556 466.173 297.654 467.055 299.249 468.651L303.361 472.766C304.746 474.152 306.634 474.908 308.564 474.908L424.5 474.908C426.472 474.908 428.318 474.152 429.703 472.766L433.815 468.651C435.41 467.055 437.508 466.173 439.773 466.173L711.293 466.719C713.558 466.719 715.656 467.601 717.251 469.197L717.335 469.281C718.719 470.666 720.566 471.422 722.538 471.422C724.51 471.422 726.356 470.666 727.741 469.281C729.126 467.895 729.881 466.047 729.881 464.073C729.881 462.099 729.126 460.251 727.741 458.865L727.657 458.781C726.062 457.186 725.181 455.086 725.181 452.818L725.181 318.009C725.181 315.741 726.063 313.641 727.657 312.045L731.769 307.93C733.154 306.544 733.909 304.654 733.909 302.722L733.909 178.37C733.909 176.438 733.112 174.548 731.769 173.162L727.657 169.047C726.063 167.451 725.181 165.351 725.181 163.083L725.181 28.2741C725.181 26.0482 726.063 23.9064 727.657 22.3105L727.741 22.2266C729.126 20.8407 729.881 18.9928 729.881 17.019C729.881 15.0451 729.126 13.1973 727.741 11.8114C726.356 10.4255 724.51 9.66959 722.538 9.66959C720.566 9.66958 718.72 10.4255 717.335 11.8114L717.251 11.8954C715.656 13.4913 713.558 14.3732 711.293 14.3732L711.251 14.3732ZM29.8474 21.5126L709.069 22.0586C713.684 22.0586 717.461 25.8383 717.461 30.4579L717.461 450.592C717.461 455.254 713.684 458.991 709.069 458.991L29.8474 458.445C25.2318 458.445 21.4554 454.666 21.4554 450.046L21.4554 29.9539C21.4554 25.3343 25.2318 21.5546 29.8474 21.5546L29.8474 21.5126ZM709.069 457.941C713.139 457.941 716.412 454.624 716.412 450.592L716.412 30.4999C716.412 26.4263 713.097 23.1505 709.069 23.1505L29.8474 22.6045C25.7773 22.6045 22.5044 25.9222 22.5044 29.9539L22.5043 450.046C22.5043 454.12 25.8192 457.395 29.8474 457.395L709.069 457.941Z" fill="url(#paint0_linear_384_4)"/>
</g>
<path d="M721.648 13.1989C719.633 13.1989 718 14.835 718 16.8532C718 18.8715 719.633 20.5076 721.648 20.5076C723.663 20.5076 725.297 18.8715 725.297 16.8532C725.297 14.835 723.663 13.1989 721.648 13.1989Z" fill="#FBB03B"/>
<path d="M728.297 183.273C728.297 185.29 726.661 186.928 724.648 186.928C722.635 186.928 721 185.29 721 183.273C721 181.257 722.635 179.619 724.648 179.619C726.661 179.619 728.297 181.257 728.297 183.273Z" fill="#FBB03B"/>
<path d="M728.297 296.727C728.297 294.71 726.661 293.072 724.648 293.072C722.635 293.072 721 294.71 721 296.727C721 298.743 722.635 300.381 724.648 300.381C726.661 300.381 728.297 298.743 728.297 296.727Z" fill="#FBB03B"/>
<path d="M728.297 193.564C728.297 195.581 726.661 197.219 724.648 197.219C722.635 197.219 721 195.581 721 193.564C721 191.548 722.635 189.91 724.648 189.91C726.661 189.91 728.297 191.548 728.297 193.564Z" fill="#FBB03B"/>
<path d="M728.297 286.435C728.297 284.419 726.661 282.781 724.648 282.781C722.635 282.781 721 284.419 721 286.435C721 288.452 722.635 290.09 724.648 290.09C726.661 290.09 728.297 288.452 728.297 286.435Z" fill="#FBB03B"/>
<path d="M728.297 203.813C728.297 205.83 726.661 207.468 724.648 207.468C722.635 207.468 721 205.83 721 203.813C721 201.797 722.635 200.159 724.648 200.159C726.661 200.159 728.297 201.797 728.297 203.813Z" fill="#FBB03B"/>
<path d="M728.297 276.186C728.297 274.17 726.661 272.532 724.648 272.532C722.635 272.532 721 274.17 721 276.186C721 278.203 722.635 279.841 724.648 279.841C726.661 279.841 728.297 278.203 728.297 276.186Z" fill="#FBB03B"/>
<path d="M728.297 214.104C728.297 216.121 726.661 217.759 724.648 217.759C722.635 217.759 721 216.121 721 214.104C721 212.088 722.635 210.45 724.648 210.45C726.661 210.45 728.297 212.088 728.297 214.104Z" fill="#FBB03B"/>
<path d="M728.297 265.896C728.297 263.879 726.661 262.241 724.648 262.241C722.635 262.241 721 263.879 721 265.896C721 267.912 722.635 269.55 724.648 269.55C726.661 269.55 728.297 267.912 728.297 265.896Z" fill="#FBB03B"/>
<path d="M728.297 224.395C728.297 226.412 726.661 228.05 724.648 228.05C722.635 228.05 721 226.412 721 224.395C721 222.379 722.635 220.741 724.648 220.741C726.661 220.741 728.297 222.379 728.297 224.395Z" fill="#FBB03B"/>
<path d="M728.297 255.605C728.297 253.588 726.661 251.95 724.648 251.95C722.635 251.95 721 253.588 721 255.605C721 257.621 722.635 259.259 724.648 259.259C726.661 259.259 728.297 257.621 728.297 255.605Z" fill="#FBB03B"/>
<path d="M728.297 234.644C728.297 236.661 726.661 238.299 724.648 238.299C722.635 238.299 721 236.661 721 234.644C721 232.628 722.635 230.99 724.648 230.99C726.661 230.99 728.297 232.628 728.297 234.644Z" fill="#FBB03B"/>
<path d="M728.297 245.356C728.297 243.339 726.661 241.701 724.648 241.701C722.635 241.701 721 243.339 721 245.356C721 247.372 722.635 249.01 724.648 249.01C726.661 249.01 728.297 247.372 728.297 245.356Z" fill="#FBB03B"/>
<defs>
<filter id="filter0_d_384_4" x="-6.10352e-05" y="0" width="739" height="480" filterUnits="userSpaceOnUse" color-interpolation-filters="sRGB">
<feFlood flood-opacity="0" result="BackgroundImageFix"/>
<feColorMatrix in="SourceAlpha" type="matrix" values="0 0 0 0 0 0 0 0 0 0 0 0 0 0 0 0 0 0 127 0" result="hardAlpha"/>
<feOffset/>
<feGaussianBlur stdDeviation="2"/>
<feComposite in2="hardAlpha" operator="out"/>
<feColorMatrix type="matrix" values="0 0 0 0 1 0 0 0 0 0.854902 0 0 0 0 0.2 0 0 0 1 0"/>
<feBlend mode="normal" in2="BackgroundImageFix" result="effect1_dropShadow_384_4"/>
<feBlend mode="normal" in="SourceGraphic" in2="effect1_dropShadow_384_4" result="shape"/>
</filter>
<linearGradient id="paint0_linear_384_4" x1="324.156" y1="240.021" x2="3.95851" y2="240.021" gradientUnits="userSpaceOnUse">
<stop offset="0.507788" stop-color="white"/>
</linearGradient>
</defs>
</svg>
